69 Stima – Testing Psicologico
…
Otteniamo le statistiche riassuntive delle distribuzioni a posteriori dei parametri degli item.

fit$summary(
    variables = parameters,
    posterior::default_summary_measures(),
    extra_quantiles = ~ posterior::quantile2(., probs = c(.0275, .975))
)
#> # A tibble: 14 × 9
#>   variable    mean  median    sd   mad     q5    q95  q2.75  q97.5
#>   <chr>      <dbl>   <dbl> <dbl> <dbl>  <dbl>  <dbl>  <dbl>  <dbl>
#> 1 beta[1]  -1.10   -1.10   0.129 0.126 -1.31  -0.892 -1.35  -0.849
#> 2 beta[2]  -1.24   -1.24   0.130 0.130 -1.46  -1.03  -1.50  -0.997
#> 3 beta[3]  -2.03   -2.02   0.158 0.156 -2.30  -1.77  -2.34  -1.73 
#> 4 beta[4]  -0.0478 -0.0489 0.120 0.121 -0.241  0.149 -0.274  0.191
#> 5 beta[5]   2.51    2.51   0.183 0.185  2.22   2.82   2.18   2.88 
#> 6 beta[6]  -1.24   -1.24   0.132 0.131 -1.46  -1.03  -1.50  -0.989
#> # ℹ 8 more rows
…
