14 Modelli multilivello – Testing Psicologico
…
# make a tibble with the data extracted above
np_coef <- tibble(
    Subject = ids,
    intercept = all_intercepts,
    slope = all_slopes
)

print(np_coef)
#> # A tibble: 18 × 3
#>   Subject intercept slope
#>   <fct>       <dbl> <dbl>
#> 1 308          288. 21.7 
#> 2 309          200.  4.36
#> 3 310          226.  3.90
#> 4 330          273.  8.01
#> 5 331          298.  4.87
#> 6 332          316.  2.40
#> # ℹ 12 more rows
…
Per ottenere le previsioni, creiamo un nuovo dataset (newdata) con tutte le combinazioni dei livelli di Subject e days_deprived. Utilizziamo la funzione crossing() del pacchetto dplyr.

newdata <- crossing(
    Subject = sleep2 |> 
        pull(Subject) |> 
        levels() |> 
        factor(),
    days_deprived = 0:7
)

Ecco un’anteprima del dataset generato:

head(newdata, 17)
#> # A tibble: 17 × 2
#>   Subject days_deprived
#>   <fct>           <int>
#> 1 308                 0
#> 2 308                 1
#> 3 308                 2
#> 4 308                 3
#> 5 308                 4
#> 6 308                 5
#> # ℹ 11 more rows
…
