15 L’affidabilità tra giudici – Testing Psicologico
…
Verifichiamo che ogni giudice abbia fornito due giudizi per soggetto:

slp_vas_nested %>%
  group_by(Speaker) %>%
  summarise(Count = n())
#> # A tibble: 10 × 2
#>   Speaker Count
#>   <chr>   <int>
#> 1 AF1         2
#> 2 AF9         2
#> 3 ALSF6       2
#> 4 ALSF7       2
#> 5 ALSF9       2
#> 6 ALSM1       2
#> # ℹ 4 more rows
…
